Project 1 - Pranav and Kyra - ST558
…
EDU01a <- read_csv("https://www4.stat.ncsu.edu/~online/datasets/EDU01a.csv")

Rows: 3198 Columns: 42
── Column specification ────────────────────────────────────────────────────────
Delimiter: ","
chr (22): Area_name, STCOU, EDU010187N1, EDU010187N2, EDU010188N1, EDU010188...
dbl (20): EDU010187F, EDU010187D, EDU010188F, EDU010188D, EDU010189F, EDU010...

ℹ Use `spec()` to retrieve the full column specification for this data.
ℹ Specify the column types or set `show_col_types = FALSE` to quiet this message.

EDU01a

# A tibble: 3,198 × 42
   Area_name     STCOU EDU010187F EDU010187D EDU010187N1 EDU010187N2 EDU010188F
   <chr>         <chr>      <dbl>      <dbl> <chr>       <chr>            <dbl>
 1 UNITED STATES 00000          0   40024299 0000        0000                 0
 2 ALABAMA       01000          0     733735 0000        0000                 0
 3 Autauga, AL   01001          0       6829 0000        0000                 0
 4 Baldwin, AL   01003          0      16417 0000        0000                 0
 5 Barbour, AL   01005          0       5071 0000        0000                 0
 6 Bibb, AL      01007          0       3557 0000        0000                 0
 7 Blount, AL    01009          0       7319 0000        0000                 0
 8 Bullock, AL   01011          0       2014 0000        0000                 0
 9 Butler, AL    01013          0       4640 0000        0000                 0
10 Calhoun, AL   01015          0      20939 0000        0000                 0
# ℹ 3,188 more rows
# ℹ 35 more variables: EDU010188D <dbl>, EDU010188N1 <chr>, EDU010188N2 <chr>,
#   EDU010189F <dbl>, EDU010189D <dbl>, EDU010189N1 <chr>, EDU010189N2 <chr>,
#   EDU010190F <dbl>, EDU010190D <dbl>, EDU010190N1 <chr>, EDU010190N2 <chr>,
#   EDU010191F <dbl>, EDU010191D <dbl>, EDU010191N1 <chr>, EDU010191N2 <chr>,
#   EDU010192F <dbl>, EDU010192D <dbl>, EDU010192N1 <chr>, EDU010192N2 <chr>,
#   EDU010193F <dbl>, EDU010193D <dbl>, EDU010193N1 <chr>, EDU010193N2 <chr>, …

#1

The data looks good! So now we will select only the columns that we’d like to look at. Using the select() function, we can name our data frame, the columns that we want, and we can even use starts_with and ends_with to help us choose exactly what we want with a little more specificity and ease. We are creating a new object in the process so that we can do further manipulations on just these columns. We’re calling the new object EDU01a_select.

#1 - Select following columns
EDU01a_select <- EDU01a |>
  select("Area_name", starts_with("STC"), ends_with("D")) |>
  rename(area_name = "Area_name")

EDU01a_select

# A tibble: 3,198 × 12
   area_name     STCOU EDU010187D EDU010188D EDU010189D EDU010190D EDU010191D
   <chr>         <chr>      <dbl>      <dbl>      <dbl>      <dbl>      <dbl>
 1 UNITED STATES 00000   40024299   39967624   40317775   40737600   41385442
 2 ALABAMA       01000     733735     728234     730048     728252     725541
 3 Autauga, AL   01001       6829       6900       6920       6847       7008
 4 Baldwin, AL   01003      16417      16465      16799      17054      17479
 5 Barbour, AL   01005       5071       5098       5068       5156       5173
 6 Bibb, AL      01007       3557       3508       3571       3621       3652
 7 Blount, AL    01009       7319       7223       7205       7209       7155
 8 Bullock, AL   01011       2014       1980       1985       1983       1985
 9 Butler, AL    01013       4640       4582       4610       4591       4544
10 Calhoun, AL   01015      20939      20923      20907      20849      20768
# ℹ 3,188 more rows
# ℹ 5 more variables: EDU010192D <dbl>, EDU010193D <dbl>, EDU010194D <dbl>,
#   EDU010195D <dbl>, EDU010196D <dbl>
…
The enrollment variable contains strings that are 10 digits long, so we are pulling out the year data with the substr() function, and the first 7 digits will also be pulled out as a new ‘Measurement’ variable.

#3 create new variable for the 2 year digits called 'incomplete year' and then convert it to numeric so that we will be able to add 1900 to it, so it will be in date format. 

EDU01a_new <- EDU01a_long |>
      mutate(
       IncompleteYear = as.numeric(substr(Enrollment, 7, 9)),
       Measurement = substr(Enrollment, 1, 7), 
       Year = IncompleteYear + 1800) |>
      select(-IncompleteYear)

EDU01a_new

# A tibble: 31,980 × 6
   area_name     STCOU Enrollment   values Measurement  Year
   <chr>         <chr> <chr>         <dbl> <chr>       <dbl>
 1 UNITED STATES 00000 EDU010187D 40024299 EDU0101      1987
 2 UNITED STATES 00000 EDU010188D 39967624 EDU0101      1988
 3 UNITED STATES 00000 EDU010189D 40317775 EDU0101      1989
 4 UNITED STATES 00000 EDU010190D 40737600 EDU0101      1990
 5 UNITED STATES 00000 EDU010191D 41385442 EDU0101      1991
 6 UNITED STATES 00000 EDU010192D 42088151 EDU0101      1992
 7 UNITED STATES 00000 EDU010193D 42724710 EDU0101      1993
 8 UNITED STATES 00000 EDU010194D 43369917 EDU0101      1994
 9 UNITED STATES 00000 EDU010195D 43993459 EDU0101      1995
10 UNITED STATES 00000 EDU010196D 44715737 EDU0101      1996
# ℹ 31,970 more rows
…
countystuff <- grep(pattern = ", \\w\\w", EDU01a_new$area_name)

Let’s test it to see if pulling out the acronym worked!

# looking at the output and structure of countystuff
str(countystuff)

 int [1:31450] 21 22 23 24 25 26 27 28 29 30 ...

Now, we can use the list we just created to indicate which rows we want in a brand new tibble called EDU01a_county. In this case, we want the ‘countystuff’ rows and all of the columns associated with them.

EDU01a_county <- EDU01a_new[countystuff, ]
EDU01a_county

# A tibble: 31,450 × 6
   area_name   STCOU Enrollment values Measurement  Year
   <chr>       <chr> <chr>       <dbl> <chr>       <dbl>
 1 Autauga, AL 01001 EDU010187D   6829 EDU0101      1987
 2 Autauga, AL 01001 EDU010188D   6900 EDU0101      1988
 3 Autauga, AL 01001 EDU010189D   6920 EDU0101      1989
 4 Autauga, AL 01001 EDU010190D   6847 EDU0101      1990
 5 Autauga, AL 01001 EDU010191D   7008 EDU0101      1991
 6 Autauga, AL 01001 EDU010192D   7137 EDU0101      1992
 7 Autauga, AL 01001 EDU010193D   7152 EDU0101      1993
 8 Autauga, AL 01001 EDU010194D   7381 EDU0101      1994
 9 Autauga, AL 01001 EDU010195D   7568 EDU0101      1995
10 Autauga, AL 01001 EDU010196D   7834 EDU0101      1996
# ℹ 31,440 more rows

This looks great! By using the negative sign, we can now create a tibble for state data with the county rows REMOVED. This will just leave the non-county (or state) rows and all the columns.

EDU01a_state <- EDU01a_new[-countystuff, ]
EDU01a_state

# A tibble: 530 × 6
   area_name     STCOU Enrollment   values Measurement  Year
   <chr>         <chr> <chr>         <dbl> <chr>       <dbl>
 1 UNITED STATES 00000 EDU010187D 40024299 EDU0101      1987
 2 UNITED STATES 00000 EDU010188D 39967624 EDU0101      1988
 3 UNITED STATES 00000 EDU010189D 40317775 EDU0101      1989
 4 UNITED STATES 00000 EDU010190D 40737600 EDU0101      1990
 5 UNITED STATES 00000 EDU010191D 41385442 EDU0101      1991
 6 UNITED STATES 00000 EDU010192D 42088151 EDU0101      1992
 7 UNITED STATES 00000 EDU010193D 42724710 EDU0101      1993
 8 UNITED STATES 00000 EDU010194D 43369917 EDU0101      1994
 9 UNITED STATES 00000 EDU010195D 43993459 EDU0101      1995
10 UNITED STATES 00000 EDU010196D 44715737 EDU0101      1996
# ℹ 520 more rows
…
class(EDU01a_county) <- c("county", class(EDU01a_county))

class(EDU01a_county)

[1] "county"     "tbl_df"     "tbl"        "data.frame"

Now, we are creating a new tibble with an additional column for the class type. In the new column, we are calling the first index so ‘county’ will be printed in the new class column.

EDU01a_county_class <- EDU01a_county |>
  mutate(class_type = class(EDU01a_county)[1])

EDU01a_county_class

# A tibble: 31,450 × 7
   area_name   STCOU Enrollment values Measurement  Year class_type
   <chr>       <chr> <chr>       <dbl> <chr>       <dbl> <chr>     
 1 Autauga, AL 01001 EDU010187D   6829 EDU0101      1987 county    
 2 Autauga, AL 01001 EDU010188D   6900 EDU0101      1988 county    
 3 Autauga, AL 01001 EDU010189D   6920 EDU0101      1989 county    
 4 Autauga, AL 01001 EDU010190D   6847 EDU0101      1990 county    
 5 Autauga, AL 01001 EDU010191D   7008 EDU0101      1991 county    
 6 Autauga, AL 01001 EDU010192D   7137 EDU0101      1992 county    
 7 Autauga, AL 01001 EDU010193D   7152 EDU0101      1993 county    
 8 Autauga, AL 01001 EDU010194D   7381 EDU0101      1994 county    
 9 Autauga, AL 01001 EDU010195D   7568 EDU0101      1995 county    
10 Autauga, AL 01001 EDU010196D   7834 EDU0101      1996 county    
# ℹ 31,440 more rows

We are going to do the same thing for state/non-county data now.

class(EDU01a_state) <- c("state", class(EDU01a_state))

Creating the state tibble with the new column for class that reads ‘state’.

EDU01a_state_class <- EDU01a_state |>
  mutate(class_type = class(EDU01a_state)[1])

Let’s take a look at the new tibbles. They look great!

print(EDU01a_county_class)

# A tibble: 31,450 × 7
   area_name   STCOU Enrollment values Measurement  Year class_type
   <chr>       <chr> <chr>       <dbl> <chr>       <dbl> <chr>     
 1 Autauga, AL 01001 EDU010187D   6829 EDU0101      1987 county    
 2 Autauga, AL 01001 EDU010188D   6900 EDU0101      1988 county    
 3 Autauga, AL 01001 EDU010189D   6920 EDU0101      1989 county    
 4 Autauga, AL 01001 EDU010190D   6847 EDU0101      1990 county    
 5 Autauga, AL 01001 EDU010191D   7008 EDU0101      1991 county    
 6 Autauga, AL 01001 EDU010192D   7137 EDU0101      1992 county    
 7 Autauga, AL 01001 EDU010193D   7152 EDU0101      1993 county    
 8 Autauga, AL 01001 EDU010194D   7381 EDU0101      1994 county    
 9 Autauga, AL 01001 EDU010195D   7568 EDU0101      1995 county    
10 Autauga, AL 01001 EDU010196D   7834 EDU0101      1996 county    
# ℹ 31,440 more rows

print(EDU01a_state_class)

# A tibble: 530 × 7
   area_name     STCOU Enrollment   values Measurement  Year class_type
   <chr>         <chr> <chr>         <dbl> <chr>       <dbl> <chr>     
 1 UNITED STATES 00000 EDU010187D 40024299 EDU0101      1987 state     
 2 UNITED STATES 00000 EDU010188D 39967624 EDU0101      1988 state     
 3 UNITED STATES 00000 EDU010189D 40317775 EDU0101      1989 state     
 4 UNITED STATES 00000 EDU010190D 40737600 EDU0101      1990 state     
 5 UNITED STATES 00000 EDU010191D 41385442 EDU0101      1991 state     
 6 UNITED STATES 00000 EDU010192D 42088151 EDU0101      1992 state     
 7 UNITED STATES 00000 EDU010193D 42724710 EDU0101      1993 state     
 8 UNITED STATES 00000 EDU010194D 43369917 EDU0101      1994 state     
 9 UNITED STATES 00000 EDU010195D 43993459 EDU0101      1995 state     
10 UNITED STATES 00000 EDU010196D 44715737 EDU0101      1996 state     
# ℹ 520 more rows

#5

In our County tibble, we want to not only be able to see that the class type is a county, but also see what state the county is in using the state acronym. We are going to use the same substr() function as before to extract the acronym.

The negative one indicates that the ‘start’ index is the second to last digit, and then we are using the total number of positions in ‘area_name’ to indicate the ‘stop’ index. So this would be the last digit. That’s how we are getting the last two digits for the acronym.

#5 Creating a new column for the state abbreviation in the county tibble.

EDU01a_county_class_abb <- EDU01a_county_class |>
  mutate(abbrev_state = substr(area_name, nchar(area_name)-1, nchar(area_name)))

print(EDU01a_county_class_abb)

# A tibble: 31,450 × 8
   area_name   STCOU Enrollment values Measurement  Year class_type abbrev_state
   <chr>       <chr> <chr>       <dbl> <chr>       <dbl> <chr>      <chr>       
 1 Autauga, AL 01001 EDU010187D   6829 EDU0101      1987 county     AL          
 2 Autauga, AL 01001 EDU010188D   6900 EDU0101      1988 county     AL          
 3 Autauga, AL 01001 EDU010189D   6920 EDU0101      1989 county     AL          
 4 Autauga, AL 01001 EDU010190D   6847 EDU0101      1990 county     AL          
 5 Autauga, AL 01001 EDU010191D   7008 EDU0101      1991 county     AL          
 6 Autauga, AL 01001 EDU010192D   7137 EDU0101      1992 county     AL          
 7 Autauga, AL 01001 EDU010193D   7152 EDU0101      1993 county     AL          
 8 Autauga, AL 01001 EDU010194D   7381 EDU0101      1994 county     AL          
 9 Autauga, AL 01001 EDU010195D   7568 EDU0101      1995 county     AL          
10 Autauga, AL 01001 EDU010196D   7834 EDU0101      1996 county     AL          
# ℹ 31,440 more rows
…
 Named chr [1:52] "New England" "New England" "New England" "New England" ...
 - attr(*, "names")= chr [1:52] "CONNECTICUT" "MAINE" "MASSACHUSETTS" "NEW HAMPSHIRE" ...

Here we are using a vectorized function to create our new tibble with the state division. The mutate() function allows us to create a new column, and the ifelse vectorized function is basically saying, in the vector state_division, if the names of the vector elements matches the area_name variable, it will return what is found in that next position in the function… the area_name value that is in the state_division vector.

Finally, the very last position in the function says what will be returned if there IS NOT a match- “Error”.

EDU01a_state_class_division <- EDU01a_state_class |>
  mutate(division = ifelse(area_name %in% names(state_division),
                           state_division[area_name],
                           "Error"))  

print(EDU01a_state_class_division)

# A tibble: 530 × 8
   area_name     STCOU Enrollment   values Measurement  Year class_type division
   <chr>         <chr> <chr>         <dbl> <chr>       <dbl> <chr>      <chr>   
 1 UNITED STATES 00000 EDU010187D 40024299 EDU0101      1987 state      Error   
 2 UNITED STATES 00000 EDU010188D 39967624 EDU0101      1988 state      Error   
 3 UNITED STATES 00000 EDU010189D 40317775 EDU0101      1989 state      Error   
 4 UNITED STATES 00000 EDU010190D 40737600 EDU0101      1990 state      Error   
 5 UNITED STATES 00000 EDU010191D 41385442 EDU0101      1991 state      Error   
 6 UNITED STATES 00000 EDU010192D 42088151 EDU0101      1992 state      Error   
 7 UNITED STATES 00000 EDU010193D 42724710 EDU0101      1993 state      Error   
 8 UNITED STATES 00000 EDU010194D 43369917 EDU0101      1994 state      Error   
 9 UNITED STATES 00000 EDU010195D 43993459 EDU0101      1995 state      Error   
10 UNITED STATES 00000 EDU010196D 44715737 EDU0101      1996 state      Error   
# ℹ 520 more rows

Hooray! It is showing the Division in our new column!

This wraps up our pre-processing steps. Now, we will write functions that combine and repeat these steps so we can quickly and efficiently make these changes with a new data set.

Function for steps 1 and 2

#function for steps 1 and 2
print(EDU01a)

# A tibble: 3,198 × 42
   Area_name     STCOU EDU010187F EDU010187D EDU010187N1 EDU010187N2 EDU010188F
   <chr>         <chr>      <dbl>      <dbl> <chr>       <chr>            <dbl>
 1 UNITED STATES 00000          0   40024299 0000        0000                 0
 2 ALABAMA       01000          0     733735 0000        0000                 0
 3 Autauga, AL   01001          0       6829 0000        0000                 0
 4 Baldwin, AL   01003          0      16417 0000        0000                 0
 5 Barbour, AL   01005          0       5071 0000        0000                 0
 6 Bibb, AL      01007          0       3557 0000        0000                 0
 7 Blount, AL    01009          0       7319 0000        0000                 0
 8 Bullock, AL   01011          0       2014 0000        0000                 0
 9 Butler, AL    01013          0       4640 0000        0000                 0
10 Calhoun, AL   01015          0      20939 0000        0000                 0
# ℹ 3,188 more rows
# ℹ 35 more variables: EDU010188D <dbl>, EDU010188N1 <chr>, EDU010188N2 <chr>,
#   EDU010189F <dbl>, EDU010189D <dbl>, EDU010189N1 <chr>, EDU010189N2 <chr>,
#   EDU010190F <dbl>, EDU010190D <dbl>, EDU010190N1 <chr>, EDU010190N2 <chr>,
#   EDU010191F <dbl>, EDU010191D <dbl>, EDU010191N1 <chr>, EDU010191N2 <chr>,
#   EDU010192F <dbl>, EDU010192D <dbl>, EDU010192N1 <chr>, EDU010192N2 <chr>,
#   EDU010193F <dbl>, EDU010193D <dbl>, EDU010193N1 <chr>, EDU010193N2 <chr>, …

  step_1_2 <- function(data, value_col_name = "measurement") {
    data |>
      select(Area_name, starts_with("STC"), ends_with("D")) |>
      rename(area_name = Area_name) |>
      pivot_longer(cols = ends_with("D"), names_to = "Enrollment", values_to = value_col_name)
     
  }

step1result <- step_1_2(EDU01a)
print(step1result)

# A tibble: 31,980 × 4
   area_name     STCOU Enrollment measurement
   <chr>         <chr> <chr>            <dbl>
 1 UNITED STATES 00000 EDU010187D    40024299
 2 UNITED STATES 00000 EDU010188D    39967624
 3 UNITED STATES 00000 EDU010189D    40317775
 4 UNITED STATES 00000 EDU010190D    40737600
 5 UNITED STATES 00000 EDU010191D    41385442
 6 UNITED STATES 00000 EDU010192D    42088151
 7 UNITED STATES 00000 EDU010193D    42724710
 8 UNITED STATES 00000 EDU010194D    43369917
 9 UNITED STATES 00000 EDU010195D    43993459
10 UNITED STATES 00000 EDU010196D    44715737
# ℹ 31,970 more rows

Function for step 3

step_3 <- function(data) {
  data |>
        mutate(
       IncompleteYear = as.numeric(substr(Enrollment, 7, 9)),
       #Measurement = substr(measurement, 1, 7), 
       Year = IncompleteYear + 1800) |>
      select(-IncompleteYear)
}
step3result <- step_3(step1result)
print(step3result)

# A tibble: 31,980 × 5
   area_name     STCOU Enrollment measurement  Year
   <chr>         <chr> <chr>            <dbl> <dbl>
 1 UNITED STATES 00000 EDU010187D    40024299  1987
 2 UNITED STATES 00000 EDU010188D    39967624  1988
 3 UNITED STATES 00000 EDU010189D    40317775  1989
 4 UNITED STATES 00000 EDU010190D    40737600  1990
 5 UNITED STATES 00000 EDU010191D    41385442  1991
 6 UNITED STATES 00000 EDU010192D    42088151  1992
 7 UNITED STATES 00000 EDU010193D    42724710  1993
 8 UNITED STATES 00000 EDU010194D    43369917  1994
 9 UNITED STATES 00000 EDU010195D    43993459  1995
10 UNITED STATES 00000 EDU010196D    44715737  1996
# ℹ 31,970 more rows

Function for step 5

step_5 <- function(data) {
    data |>
      mutate(state = ifelse(grepl(", \\w\\w", area_name), substr(area_name, nchar(area_name) - 1, nchar(area_name)), NA))
}

step5result <- step_5(step3result)
print(step5result)

# A tibble: 31,980 × 6
   area_name     STCOU Enrollment measurement  Year state
   <chr>         <chr> <chr>            <dbl> <dbl> <chr>
 1 UNITED STATES 00000 EDU010187D    40024299  1987 <NA> 
 2 UNITED STATES 00000 EDU010188D    39967624  1988 <NA> 
 3 UNITED STATES 00000 EDU010189D    40317775  1989 <NA> 
 4 UNITED STATES 00000 EDU010190D    40737600  1990 <NA> 
 5 UNITED STATES 00000 EDU010191D    41385442  1991 <NA> 
 6 UNITED STATES 00000 EDU010192D    42088151  1992 <NA> 
 7 UNITED STATES 00000 EDU010193D    42724710  1993 <NA> 
 8 UNITED STATES 00000 EDU010194D    43369917  1994 <NA> 
 9 UNITED STATES 00000 EDU010195D    43993459  1995 <NA> 
10 UNITED STATES 00000 EDU010196D    44715737  1996 <NA> 
# ℹ 31,970 more rows
…
